#1 5x5
A - . . A
B C . - .
. . - D .
| . . . .
B D C . .

#2 5x5
A . - . B
. - . . .
| B C A |
. . . . .
. . - . C

#3 9 x 9
. - . . . - - . .
| A . B C . - . .
. D . - . . D A |
. . - - . . . . .
. - . . . B . . E
. - . . . . . F .
. . . . - . F | .
C | . . - . . . .
E . . - - . - . .